…
AllChampionsLeagueDF = AllChampionsLeagueData %>% 
  bind_rows(.)

#AllChampionsLeagueDF = dget(  "C:/Users/Kieran Shah/Dropbox/Public/ChampionsLeague/ChampionsLeagueResults" )
# readr::write_csv(AllChampionsLeagueDF ,
#                  "C:/Users/Kieran Shah/Dropbox/Public/ChampionsLeague/ChampionsLeagueResults.csv")

#dput(AllChampionsLeagueDF , "ChampionsLeagueResults" )

The code above uses rvest to grab the data from Wikipedia. It pulls in every table with html_table. After running the code above, we get the below data set:

## $`_data`
## # A tibble: 865 x 7
##    `Team 1`         Agg.        `Team 2`        `1st leg` `2nd leg` Round Year  
##    <chr>            <chr>       <chr>           <chr>     <chr>     <int> <chr> 
##  1 Pyunik           2–1         KR              1–0       1–1           1 2003-~
##  2 Sheriff Tiraspol 2–1         Flora Tallinn   1–0       1–1           1 2003-~
##  3 HB               1–5         FBK Kaunas      0–1       1–4           1 2003-~
##  4 BATE Borisov     1–3         Bohemians       1–0       0–3           1 2003-~
##  5 Vardar           4–2         Barry Town      3–0       1–2           1 2003-~
##  6 Grevenmacher     0–2         Leotar          0–0       0–2           1 2003-~
##  7 Glentoran        0–1         HJK             0–0       0–1           1 2003-~
##  8 Sliema Wanderers 3–3 (a)     Skonto          2–0       1–3           1 2003-~
##  9 Omonia           2–1         Irtysh Pavlodar 0–0       2–1           1 2003-~
## 10 Dinamo Tbilisi   3–3 (2–4 p) KF Tirana       3–0       0–3 (aet)     1 2003-~
## # ... with 855 more rows
## 
## $`_boxhead`
## # A tibble: 7 x 6
##   var     type    column_label column_align column_width hidden_px
##   <chr>   <chr>   <list>       <chr>        <list>       <list>   
## 1 Team 1  default <chr [1]>    left         <NULL>       <NULL>   
## 2 Agg.    default <chr [1]>    left         <NULL>       <NULL>   
## 3 Team 2  default <chr [1]>    left         <NULL>       <NULL>   
## 4 1st leg default <chr [1]>    left         <NULL>       <NULL>   
## 5 2nd leg default <chr [1]>    left         <NULL>       <NULL>   
## 6 Round   default <chr [1]>    center       <NULL>       <NULL>   
## 7 Year    default <chr [1]>    left         <NULL>       <NULL>   
## 
## $`_stub_df`
## # A tibble: 865 x 3
##    rownum_i groupname rowname
##       <int> <chr>     <chr>  
##  1        1 <NA>      <NA>   
##  2        2 <NA>      <NA>   
##  3        3 <NA>      <NA>   
##  4        4 <NA>      <NA>   
##  5        5 <NA>      <NA>   
##  6        6 <NA>      <NA>   
##  7        7 <NA>      <NA>   
##  8        8 <NA>      <NA>   
##  9        9 <NA>      <NA>   
## 10       10 <NA>      <NA>   
## # ... with 855 more rows
## 
## $`_row_groups`
## character(0)
## 
## $`_stub_others`
## [1] NA
## 
## $`_heading`
…
